\relax 
\newlabel{eq1}{{1}{1}}
\newlabel{eu_eqn}{{2}{1}}
\@writefile{lot}{\contentsline {table}{\numberline {1}{\ignorespaces Greek Numerals and their typical usages in Math}}{2}\protected@file@percent }
